\contentsline {section}{\numberline {1}Q1}{2}
\contentsline {section}{\numberline {2}Q2}{2}
\contentsline {section}{\numberline {3}Q3}{2}
\contentsline {section}{\numberline {4}Q4}{3}
\contentsline {section}{\numberline {5}Q5}{4}
\contentsline {section}{\numberline {6}Q6-8}{5}
