\relax 
\providecommand\tcolorbox@label[2]{}
\@writefile{toc}{\contentsline {section}{\numberline {1}Q1}{1}}
\@writefile{toc}{\contentsline {section}{\numberline {2}Q2}{1}}
\@writefile{toc}{\contentsline {section}{\numberline {3}Q3}{2}}
\@writefile{toc}{\contentsline {section}{\numberline {4}Q4}{2}}
\@writefile{toc}{\contentsline {section}{\numberline {5}Q5}{3}}
\@writefile{toc}{\contentsline {section}{\numberline {6}Q6-8}{4}}
