Picked up _JAVA_OPTIONS: -Xmx1g
Running class mpp.EX1Q6 with 2 threads
Creating Thread 0
Starting Thread 0
Creating Thread 1
Starting Thread 1
Running Thread 0, Going to run 1000000 times
Running Thread 1, Going to run 1000000 times
Thread Thread 1 exiting.
Thread Thread 0 exiting.
sharedCount: 1375589
Time elapsed: 69 milliseconds
Finished Running class mpp.EX1Q6 with 2 threads
Running class mpp.EX1Q6 with 4 threads
Creating Thread 0
Starting Thread 0
Creating Thread 1
Starting Thread 1
Running Thread 0, Going to run 1000000 times
Running Thread 1, Going to run 1000000 times
Creating Thread 2
Starting Thread 2
Creating Thread 3
Starting Thread 3
Running Thread 2, Going to run 1000000 times
Running Thread 3, Going to run 1000000 times
Thread Thread 0 exiting.
Thread Thread 1 exiting.
Thread Thread 2 exiting.
Thread Thread 3 exiting.
sharedCount: 1784067
Time elapsed: 178 milliseconds
Finished Running class mpp.EX1Q6 with 4 threads
Running class mpp.EX1Q6 with 8 threads
Creating Thread 0
Starting Thread 0
Creating Thread 1
Starting Thread 1
Running Thread 0, Going to run 1000000 times
Creating Thread 2
Running Thread 1, Going to run 1000000 times
Starting Thread 2
Creating Thread 3
Starting Thread 3
Running Thread 2, Going to run 1000000 times
Creating Thread 4
Running Thread 3, Going to run 1000000 times
Starting Thread 4
Creating Thread 5
Starting Thread 5
Running Thread 4, Going to run 1000000 times
Running Thread 5, Going to run 1000000 times
Creating Thread 6
Starting Thread 6
Creating Thread 7
Starting Thread 7
Running Thread 6, Going to run 1000000 times
Running Thread 7, Going to run 1000000 times
Thread Thread 0 exiting.
Thread Thread 6 exiting.
Thread Thread 2 exiting.
Thread Thread 5 exiting.
Thread Thread 7 exiting.
Thread Thread 1 exiting.
Thread Thread 3 exiting.
Thread Thread 4 exiting.
sharedCount: 1843358
Time elapsed: 410 milliseconds
Finished Running class mpp.EX1Q6 with 8 threads
Running class mpp.EX1Q6 with 16 threads
Creating Thread 0
Starting Thread 0
Creating Thread 1
Running Thread 0, Going to run 1000000 times
Starting Thread 1
Creating Thread 2
Starting Thread 2
Running Thread 1, Going to run 1000000 times
Creating Thread 3
Starting Thread 3
Running Thread 2, Going to run 1000000 times
Creating Thread 4
Starting Thread 4
Running Thread 3, Going to run 1000000 times
Creating Thread 5
Starting Thread 5
Running Thread 4, Going to run 1000000 times
Creating Thread 6
Starting Thread 6
Running Thread 5, Going to run 1000000 times
Creating Thread 7
Starting Thread 7
Running Thread 6, Going to run 1000000 times
Creating Thread 8
Starting Thread 8
Running Thread 7, Going to run 1000000 times
Creating Thread 9
Starting Thread 9
Running Thread 8, Going to run 1000000 times
Running Thread 9, Going to run 1000000 times
Creating Thread 10
Starting Thread 10
Creating Thread 11
Starting Thread 11
Running Thread 10, Going to run 1000000 times
Creating Thread 12
Starting Thread 12
Running Thread 11, Going to run 1000000 times
Creating Thread 13
Starting Thread 13
Running Thread 12, Going to run 1000000 times
Creating Thread 14
Running Thread 13, Going to run 1000000 times
Starting Thread 14
Creating Thread 15
Running Thread 14, Going to run 1000000 times
Starting Thread 15
Running Thread 15, Going to run 1000000 times
Thread Thread 0 exiting.
Thread Thread 5 exiting.
Thread Thread 7 exiting.
Thread Thread 13 exiting.
Thread Thread 4 exiting.
Thread Thread 15 exiting.
Thread Thread 8 exiting.
Thread Thread 1 exiting.
Thread Thread 11 exiting.
Thread Thread 6 exiting.
Thread Thread 14 exiting.
Thread Thread 10 exiting.
Thread Thread 2 exiting.
Thread Thread 3 exiting.
Thread Thread 12 exiting.
Thread Thread 9 exiting.
sharedCount: 2385470
Time elapsed: 806 milliseconds
Finished Running class mpp.EX1Q6 with 16 threads
Running class mpp.EX1Q6 with 32 threads
Creating Thread 0
Starting Thread 0
Creating Thread 1
Running Thread 0, Going to run 1000000 times
Starting Thread 1
Running Thread 1, Going to run 1000000 times
Creating Thread 2
Starting Thread 2
Creating Thread 3
Running Thread 2, Going to run 1000000 times
Starting Thread 3
Running Thread 3, Going to run 1000000 times
Creating Thread 4
Starting Thread 4
Creating Thread 5
Starting Thread 5
Running Thread 4, Going to run 1000000 times
Creating Thread 6
Running Thread 5, Going to run 1000000 times
Starting Thread 6
Creating Thread 7
Running Thread 6, Going to run 1000000 times
Starting Thread 7
Creating Thread 8
Starting Thread 8
Running Thread 7, Going to run 1000000 times
Creating Thread 9
Running Thread 8, Going to run 1000000 times
Starting Thread 9
Creating Thread 10
Starting Thread 10
Running Thread 9, Going to run 1000000 times
Creating Thread 11
Running Thread 10, Going to run 1000000 times
Starting Thread 11
Running Thread 11, Going to run 1000000 times
Creating Thread 12
Starting Thread 12
Running Thread 12, Going to run 1000000 times
Creating Thread 13
Starting Thread 13
Creating Thread 14
Running Thread 13, Going to run 1000000 times
Starting Thread 14
Creating Thread 15
Starting Thread 15
Running Thread 14, Going to run 1000000 times
Thread Thread 6 exiting.
Thread Thread 9 exiting.
Thread Thread 3 exiting.
Thread Thread 12 exiting.
Thread Thread 4 exiting.
Thread Thread 13 exiting.
Thread Thread 1 exiting.
Thread Thread 10 exiting.
Thread Thread 5 exiting.
Thread Thread 11 exiting.
Thread Thread 0 exiting.
Thread Thread 8 exiting.
Thread Thread 7 exiting.
Running Thread 15, Going to run 1000000 times
Thread Thread 2 exiting.
Creating Thread 16
Starting Thread 16
Creating Thread 17
Starting Thread 17
Running Thread 16, Going to run 1000000 times
Creating Thread 18
Starting Thread 18
Running Thread 17, Going to run 1000000 times
Creating Thread 19
Starting Thread 19
Running Thread 18, Going to run 1000000 times
Creating Thread 20
Starting Thread 20
Running Thread 19, Going to run 1000000 times
Creating Thread 21
Running Thread 20, Going to run 1000000 times
Starting Thread 21
Creating Thread 22
Starting Thread 22
Running Thread 21, Going to run 1000000 times
Creating Thread 23
Starting Thread 23
Running Thread 22, Going to run 1000000 times
Creating Thread 24
Starting Thread 24
Running Thread 23, Going to run 1000000 times
Creating Thread 25
Running Thread 24, Going to run 1000000 times
Starting Thread 25
Running Thread 25, Going to run 1000000 times
Creating Thread 26
Starting Thread 26
Running Thread 26, Going to run 1000000 times
Creating Thread 27
Starting Thread 27
Creating Thread 28
Running Thread 27, Going to run 1000000 times
Starting Thread 28
Creating Thread 29
Running Thread 28, Going to run 1000000 times
Starting Thread 29
Creating Thread 30
Starting Thread 30
Running Thread 29, Going to run 1000000 times
Creating Thread 31
Running Thread 30, Going to run 1000000 times
Starting Thread 31
Running Thread 31, Going to run 1000000 times
Thread Thread 25 exiting.
Thread Thread 21 exiting.
Thread Thread 24 exiting.
Thread Thread 17 exiting.
Thread Thread 29 exiting.
Thread Thread 16 exiting.
Thread Thread 20 exiting.
Thread Thread 28 exiting.
Thread Thread 14 exiting.
Thread Thread 18 exiting.
Thread Thread 22 exiting.
Thread Thread 30 exiting.
Thread Thread 26 exiting.
Thread Thread 23 exiting.
Thread Thread 15 exiting.
Thread Thread 27 exiting.
Thread Thread 31 exiting.
Thread Thread 19 exiting.
sharedCount: 4755244
Time elapsed: 1576 milliseconds
Finished Running class mpp.EX1Q6 with 32 threads
Multicore execution finished
